{
  "RECORDS": [
    {
      "id": "1",
      "name": "Thành phố Hà Nội",
      "prefix": "Thành phố Trung ương"
    },
    {
      "id": "2",
      "name": "Tỉnh Hà Giang",
      "prefix": "Tỉnh"
    },
    {
      "id": "4",
      "name": "Tỉnh Cao Bằng",
      "prefix": "Tỉnh"
    },
    {
      "id": "6",
      "name": "Tỉnh Bắc Kạn",
      "prefix": "Tỉnh"
    },
    {
      "id": "8",
      "name": "Tỉnh Tuyên Quang",
      "prefix": "Tỉnh"
    },
    {
      "id": "10",
      "name": "Tỉnh Lào Cai",
      "prefix": "Tỉnh"
    },
    {
      "id": "11",
      "name": "Tỉnh Điện Biên",
      "prefix": "Tỉnh"
    },
    {
      "id": "12",
      "name": "Tỉnh Lai Châu",
      "prefix": "Tỉnh"
    },
    {
      "id": "14",
      "name": "Tỉnh Sơn La",
      "prefix": "Tỉnh"
    },
    {
      "id": "15",
      "name": "Tỉnh Yên Bái",
      "prefix": "Tỉnh"
    },
    {
      "id": "17",
      "name": "Tỉnh Hoà Bình",
      "prefix": "Tỉnh"
    },
    {
      "id": "19",
      "name": "Tỉnh Thái Nguyên",
      "prefix": "Tỉnh"
    },
    {
      "id": "20",
      "name": "Tỉnh Lạng Sơn",
      "prefix": "Tỉnh"
    },
    {
      "id": "22",
      "name": "Tỉnh Quảng Ninh",
      "prefix": "Tỉnh"
    },
    {
      "id": "24",
      "name": "Tỉnh Bắc Giang",
      "prefix": "Tỉnh"
    },
    {
      "id": "25",
      "name": "Tỉnh Phú Thọ",
      "prefix": "Tỉnh"
    },
    {
      "id": "26",
      "name": "Tỉnh Vĩnh Phúc",
      "prefix": "Tỉnh"
    },
    {
      "id": "27",
      "name": "Tỉnh Bắc Ninh",
      "prefix": "Tỉnh"
    },
    {
      "id": "30",
      "name": "Tỉnh Hải Dương",
      "prefix": "Tỉnh"
    },
    {
      "id": "31",
      "name": "Thành phố Hải Phòng",
      "prefix": "Thành phố Trung ương"
    },
    {
      "id": "33",
      "name": "Tỉnh Hưng Yên",
      "prefix": "Tỉnh"
    },
    {
      "id": "34",
      "name": "Tỉnh Thái Bình",
      "prefix": "Tỉnh"
    },
    {
      "id": "35",
      "name": "Tỉnh Hà Nam",
      "prefix": "Tỉnh"
    },
    {
      "id": "36",
      "name": "Tỉnh Nam Định",
      "prefix": "Tỉnh"
    },
    {
      "id": "37",
      "name": "Tỉnh Ninh Bình",
      "prefix": "Tỉnh"
    },
    {
      "id": "38",
      "name": "Tỉnh Thanh Hóa",
      "prefix": "Tỉnh"
    },
    {
      "id": "40",
      "name": "Tỉnh Nghệ An",
      "prefix": "Tỉnh"
    },
    {
      "id": "42",
      "name": "Tỉnh Hà Tĩnh",
      "prefix": "Tỉnh"
    },
    {
      "id": "44",
      "name": "Tỉnh Quảng Bình",
      "prefix": "Tỉnh"
    },
    {
      "id": "45",
      "name": "Tỉnh Quảng Trị",
      "prefix": "Tỉnh"
    },
    {
      "id": "46",
      "name": "Tỉnh Thừa Thiên Huế",
      "prefix": "Tỉnh"
    },
    {
      "id": "48",
      "name": "Thành phố Đà Nẵng",
      "prefix": "Thành phố Trung ương"
    },
    {
      "id": "49",
      "name": "Tỉnh Quảng Nam",
      "prefix": "Tỉnh"
    },
    {
      "id": "51",
      "name": "Tỉnh Quảng Ngãi",
      "prefix": "Tỉnh"
    },
    {
      "id": "52",
      "name": "Tỉnh Bình Định",
      "prefix": "Tỉnh"
    },
    {
      "id": "54",
      "name": "Tỉnh Phú Yên",
      "prefix": "Tỉnh"
    },
    {
      "id": "56",
      "name": "Tỉnh Khánh Hòa",
      "prefix": "Tỉnh"
    },
    {
      "id": "58",
      "name": "Tỉnh Ninh Thuận",
      "prefix": "Tỉnh"
    },
    {
      "id": "60",
      "name": "Tỉnh Bình Thuận",
      "prefix": "Tỉnh"
    },
    {
      "id": "62",
      "name": "Tỉnh Kon Tum",
      "prefix": "Tỉnh"
    },
    {
      "id": "64",
      "name": "Tỉnh Gia Lai",
      "prefix": "Tỉnh"
    },
    {
      "id": "66",
      "name": "Tỉnh Đắk Lắk",
      "prefix": "Tỉnh"
    },
    {
      "id": "67",
      "name": "Tỉnh Đắk Nông",
      "prefix": "Tỉnh"
    },
    {
      "id": "68",
      "name": "Tỉnh Lâm Đồng",
      "prefix": "Tỉnh"
    },
    {
      "id": "70",
      "name": "Tỉnh Bình Phước",
      "prefix": "Tỉnh"
    },
    {
      "id": "72",
      "name": "Tỉnh Tây Ninh",
      "prefix": "Tỉnh"
    },
    {
      "id": "74",
      "name": "Tỉnh Bình Dương",
      "prefix": "Tỉnh"
    },
    {
      "id": "75",
      "name": "Tỉnh Đồng Nai",
      "prefix": "Tỉnh"
    },
    {
      "id": "77",
      "name": "Tỉnh Bà Rịa - Vũng Tàu",
      "prefix": "Tỉnh"
    },
    {
      "id": "79",
      "name": "Thành phố Hồ Chí Minh",
      "prefix": "Thành phố Trung ương"
    },
    {
      "id": "80",
      "name": "Tỉnh Long An",
      "prefix": "Tỉnh"
    },
    {
      "id": "82",
      "name": "Tỉnh Tiền Giang",
      "prefix": "Tỉnh"
    },
    {
      "id": "83",
      "name": "Tỉnh Bến Tre",
      "prefix": "Tỉnh"
    },
    {
      "id": "84",
      "name": "Tỉnh Trà Vinh",
      "prefix": "Tỉnh"
    },
    {
      "id": "86",
      "name": "Tỉnh Vĩnh Long",
      "prefix": "Tỉnh"
    },
    {
      "id": "87",
      "name": "Tỉnh Đồng Tháp",
      "prefix": "Tỉnh"
    },
    {
      "id": "89",
      "name": "Tỉnh An Giang",
      "prefix": "Tỉnh"
    },
    {
      "id": "91",
      "name": "Tỉnh Kiên Giang",
      "prefix": "Tỉnh"
    },
    {
      "id": "92",
      "name": "Thành phố Cần Thơ",
      "prefix": "Thành phố Trung ương"
    },
    {
      "id": "93",
      "name": "Tỉnh Hậu Giang",
      "prefix": "Tỉnh"
    },
    {
      "id": "94",
      "name": "Tỉnh Sóc Trăng",
      "prefix": "Tỉnh"
    },
    {
      "id": "95",
      "name": "Tỉnh Bạc Liêu",
      "prefix": "Tỉnh"
    },
    {
      "id": "96",
      "name": "Tỉnh Cà Mau",
      "prefix": "Tỉnh"
    }
  ]
}